testbench/waves.vcd
$date
	Wed Sep  8 15:51:25 2021
$end

$version
	Synopsys VCS version O-2018.09-SP2-4_Full64
$end

$timescale
	1ps
$end

$comment Csum: 1 b1f2b37a1a8c49a0 $end


$scope module $unit $end
$upscope $end


$scope module axi_lite_pkg $end
$upscope $end


$scope module simplealu_tb_top $end
$var reg 1 ! areset_n $end
$var reg 1 " start_read $end
$var reg 1 # start_write $end
$var reg 32 $ write_data [31:0] $end
$var reg 32 % read_data [31:0] $end
$var reg 32 & write_read_address [31:0] $end
$var wire 32 ' m_apb_paddr [31:0] $end
$var wire 3 ( m_apb_pprot [2:0] $end
$var wire 3 ) m_apb_psel [2:0] $end
$var wire 1 * m_apb_penable $end
$var wire 1 + m_apb_pwrite $end
$var wire 32 , m_apb_pwdata [31:0] $end
$var wire 4 - m_apb_pstrb [3:0] $end
$var wire 3 . m_apb_pready [2:0] $end
$var wire 32 / m_apb_prdata [31:0] $end
$var wire 32 0 m_apb_prdata2 [31:0] $end
$var wire 32 1 m_apb_prdata3 [31:0] $end
$var wire 32 2 m_apb_prdata4 [31:0] $end
$var wire 32 3 m_apb_prdata5 [31:0] $end
$var wire 32 4 m_apb_prdata6 [31:0] $end
$var wire 32 5 m_apb_prdata7 [31:0] $end
$var wire 32 6 m_apb_prdata8 [31:0] $end
$var wire 32 7 m_apb_prdata9 [31:0] $end
$var wire 32 8 m_apb_prdata10 [31:0] $end
$var wire 32 9 m_apb_prdata11 [31:0] $end
$var wire 32 : m_apb_prdata12 [31:0] $end
$var wire 32 ; m_apb_prdata13 [31:0] $end
$var wire 32 < m_apb_prdata14 [31:0] $end
$var wire 32 = m_apb_prdata15 [31:0] $end
$var wire 32 > m_apb_prdata16 [31:0] $end
$var wire 3 ? m_apb_pslverr [2:0] $end
$var reg 4 @ test_state_ [3:0] $end
$var reg 32 A repetetions [31:0] $end
$var reg 32 B slave_no [31:0] $end

$scope task write $end
$var reg 32 C data [31:0] $end
$var reg 32 D address [31:0] $end
$upscope $end


$scope task read $end
$var reg 32 E address [31:0] $end
$upscope $end


$scope module vif $end
$var reg 1 F clk $end
$var reg 32 G s_axi_araddr [31:0] $end
$var wire 1 H s_axi_arvalid $end
$var wire 1 I s_axi_arready $end
$var reg 32 J s_axi_rdata [31:0] $end
$var reg 2 K s_axi_rresp [1:0] $end
$var wire 1 L s_axi_rvalid $end
$var wire 1 M s_axi_rready $end
$var reg 32 N s_axi_awaddr [31:0] $end
$var wire 1 O s_axi_awvalid $end
$var wire 1 P s_axi_awready $end
$var reg 32 Q s_axi_wdata [31:0] $end
$var reg 4 R s_axi_wstrb [3:0] $end
$var wire 1 S s_axi_wvalid $end
$var wire 1 T s_axi_wready $end
$var reg 2 U s_axi_bresp [1:0] $end
$var wire 1 V s_axi_bvalid $end
$var wire 1 W s_axi_bready $end
$var wire 3 X s_axi_arprot [2:0] $end
$var wire 3 Y s_axi_awprot [2:0] $end
$upscope $end


$scope module axi_lite_master_vif $end
$var reg 1 Z clk $end
$var reg 32 [ s_axi_araddr [31:0] $end
$var wire 1 \ s_axi_arvalid $end
$var wire 1 ] s_axi_arready $end
$var reg 32 ^ s_axi_rdata [31:0] $end
$var reg 2 _ s_axi_rresp [1:0] $end
$var wire 1 ` s_axi_rvalid $end
$var wire 1 a s_axi_rready $end
$var reg 32 b s_axi_awaddr [31:0] $end
$var wire 1 c s_axi_awvalid $end
$var wire 1 d s_axi_awready $end
$var reg 32 e s_axi_wdata [31:0] $end
$var reg 4 f s_axi_wstrb [3:0] $end
$var wire 1 g s_axi_wvalid $end
$var wire 1 h s_axi_wready $end
$var reg 2 i s_axi_bresp [1:0] $end
$var wire 1 j s_axi_bvalid $end
$var wire 1 k s_axi_bready $end
$var wire 3 l s_axi_arprot [2:0] $end
$var wire 3 m s_axi_awprot [2:0] $end
$upscope $end


$scope module axi_lite_master_DUT $end
$var reg 1 n aclk $end
$var reg 1 o areset_n $end
$var reg 1 p start_read $end
$var reg 1 q start_write $end
$var reg 32 r write_data [31:0] $end
$var reg 32 s write_read_address [31:0] $end
$var reg 3 t state [2:0] $end
$var reg 3 u next_state [2:0] $end
$var reg 32 v addr [31:0] $end
$var reg 32 w data [31:0] $end
$var reg 32 x rdata [31:0] $end
$var reg 1 y start_read_delay $end
$var reg 1 z start_write_delay $end
$upscope $end


$scope module bridge $end
$var wire 1 { s_axi_clk $end
$var wire 1 | s_axi_aresetn $end
$var wire 32 } s_axi_awaddr [31:0] $end
$var wire 1 c s_axi_awvalid $end
$var wire 1 d s_axi_awready $end
$var wire 32 ~ s_axi_wdata [31:0] $end
$var wire 1 g s_axi_wvalid $end
$var wire 4 "! s_axi_wstrb [3:0] $end
$var wire 1 h s_axi_wready $end
$var wire 2 "" s_axi_bresp [1:0] $end
$var wire 1 j s_axi_bvalid $end
$var wire 1 k s_axi_bready $end
$var wire 32 "# s_axi_araddr [31:0] $end
$var wire 1 \ s_axi_arvalid $end
$var wire 1 ] s_axi_arready $end
$var wire 2 "$ s_axi_rresp [1:0] $end
$var wire 1 ` s_axi_rvalid $end
$var wire 32 "% s_axi_rdata [31:0] $end
$var wire 1 a s_axi_rready $end
$var wire 3 l s_axi_arprot [2:0] $end
$var wire 3 m s_axi_awprot [2:0] $end
$var wire 32 ' m_apb_paddr [31:0] $end
$var wire 3 ( m_apb_pprot [2:0] $end
$var wire 3 ) m_apb_psel [2:0] $end
$var wire 1 * m_apb_penable $end
$var wire 1 + m_apb_pwrite $end
$var wire 32 , m_apb_pwdata [31:0] $end
$var wire 4 - m_apb_pstrb [3:0] $end
$var wire 3 . m_apb_pready [2:0] $end
$var wire 32 / m_apb_prdata [31:0] $end
$var wire 32 0 m_apb_prdata2 [31:0] $end
$var wire 32 1 m_apb_prdata3 [31:0] $end
$var wire 32 2 m_apb_prdata4 [31:0] $end
$var wire 32 3 m_apb_prdata5 [31:0] $end
$var wire 32 4 m_apb_prdata6 [31:0] $end
$var wire 32 5 m_apb_prdata7 [31:0] $end
$var wire 32 6 m_apb_prdata8 [31:0] $end
$var wire 32 7 m_apb_prdata9 [31:0] $end
$var wire 32 8 m_apb_prdata10 [31:0] $end
$var wire 32 9 m_apb_prdata11 [31:0] $end
$var wire 32 : m_apb_prdata12 [31:0] $end
$var wire 32 ; m_apb_prdata13 [31:0] $end
$var wire 32 < m_apb_prdata14 [31:0] $end
$var wire 32 = m_apb_prdata15 [31:0] $end
$var wire 32 > m_apb_prdata16 [31:0] $end
$var wire 3 ? m_apb_pslverr [2:0] $end
$var wire 32 "& axi_write_data_reg [31:0] $end
$var wire 32 "' axi_write_data_nxt [31:0] $end
$var wire 1 "( write_happened $end
$var wire 1 ") write_happened_nxt $end
$var wire 1 ` read_valid_reg $end
$var wire 1 "* read_valid_nxt $end
$var wire 1 j write_resp_valid_reg $end
$var wire 1 "+ write_resp_valid_nxt $end
$var wire 32 ", read_data_reg [31:0] $end
$var wire 32 "- read_data_nxt [31:0] $end
$var wire 32 ". captured_addr [31:0] $end
$var wire 32 "/ captured_addr_nxt [31:0] $end
$var wire 2 "0 read_resp [1:0] $end
$var wire 2 "1 read_resp_nxt [1:0] $end
$var wire 2 "2 write_resp [1:0] $end
$var wire 2 "3 write_resp_nxt [1:0] $end
$var reg 32 "4 timeout_counter [31:0] $end
$var wire 32 "5 timeout_counter_nxt [31:0] $end
$var wire 3 "6 apb_pprot_reg [2:0] $end
$var wire 3 "7 apb_pprot_nxt [2:0] $end
$var wire 4 "8 wstrb_reg [3:0] $end
$var wire 4 "9 wstrb_nxt [3:0] $end
$var reg 3 ": bridge_state [2:0] $end
$var wire 1 "; apb_transfer_req $end
$var wire 3 ) SSEL [2:0] $end
$var wire 2 "< state [1:0] $end
$var wire 1 + SWRT $end
$var wire 32 "& SWDATA [31:0] $end
$var wire 4 "8 WSTRB [3:0] $end
$var wire 32 / SRDATA [31:0] $end
$var wire 32 "= sel_m_apb_prdata [31:0] $end
$var wire 32 ". SADDR [31:0] $end
$var wire 1 "> apb_reset $end
$var wire 1 "; STREQ $end
$var wire 1 "? condition1_state_Idle $end
$var wire 1 "@ condition2_state_Idle $end
$var wire 1 "A condition3_state_Idle $end
$var wire 1 "B condition11_state_Idle $end
$var wire 1 "C condition12_state_Idle $end
$var wire 1 "D condition13_state_Idle $end
$var wire 1 "E condition14_state_Idle $end
$var wire 1 "F condition1_state_axi_read $end
$var wire 1 "G condition2_state_axi_read $end
$var wire 1 "H condition3_state_axi_read $end
$var wire 1 "I condition4_state_axi_read $end
$var wire 1 "J condition11_state_axi_read $end
$var wire 1 "K condition12_state_axi_read $end
$var wire 1 "L condition22_state_axi_read $end
$var wire 1 "M condition111_state_axi_read $end
$var wire 1 "N condition112_state_axi_read $end
$var wire 1 "O condition113_state_axi_read $end
$var wire 1 "P condition114_state_axi_read $end
$var wire 1 "Q condition1_state_axi_write $end
$var wire 1 "R condition2_state_axi_write $end
$var wire 1 "S condition3_state_axi_write $end
$var wire 1 "T condition22_state_axi_write $end
$var wire 1 "U condition1_state_axi_read_response_wait $end
$var wire 1 "V condition2_state_axi_read_response_wait $end
$var wire 1 "W condition11_state_axi_read_response_wait $end
$var wire 1 "X condition12_state_axi_read_response_wait $end
$var wire 1 "Y condition13_state_axi_read_response_wait $end
$var wire 1 "Z condition14_state_axi_read_response_wait $end
$var wire 1 "[ condition1_state_axi_write_address_wait $end
$var wire 1 "\ condition2_state_axi_write_address_wait $end
$var wire 1 "] condition1_state_axi_write_data_wait $end
$var wire 1 "^ condition2_state_axi_write_data_wait $end
$var wire 1 + write_req $end
$var wire 3 "_ ssel_addr_decoder [2:0] $end

$scope module axi_write_data_ff $end
$var wire 1 { clk $end
$var wire 1 | rst $end
$var wire 32 "' d [31:0] $end
$var reg 32 "` q [31:0] $end
$upscope $end


$scope module write_happened_ff $end
$var wire 1 { clk $end
$var wire 1 | rst $end
$var wire 1 ") d [0:0] $end
$var reg 1 "a q [0:0] $end
$upscope $end


$scope module read_valid_ff $end
$var wire 1 { clk $end
$var wire 1 | rst $end
$var wire 1 "* d [0:0] $end
$var reg 1 "b q [0:0] $end
$upscope $end


$scope module write_resp_valid_ff $end
$var wire 1 { clk $end
$var wire 1 | rst $end
$var wire 1 "+ d [0:0] $end
$var reg 1 "c q [0:0] $end
$upscope $end


$scope module read_data_ff $end
$var wire 1 { clk $end
$var wire 1 | rst $end
$var wire 32 "- d [31:0] $end
$var reg 32 "d q [31:0] $end
$upscope $end


$scope module captured_addr_ff $end
$var wire 1 { clk $end
$var wire 1 | rst $end
$var wire 32 "/ d [31:0] $end
$var reg 32 "e q [31:0] $end
$upscope $end


$scope module read_resp_ff $end
$var wire 1 { clk $end
$var wire 1 | rst $end
$var wire 2 "1 d [1:0] $end
$var reg 2 "0 q [1:0] $end
$upscope $end


$scope module write_resp_ff $end
$var wire 1 { clk $end
$var wire 1 | rst $end
$var wire 2 "3 d [1:0] $end
$var reg 2 "2 q [1:0] $end
$upscope $end


$scope module timeout_counter_ff $end
$var wire 1 { clk $end
$var wire 1 | rst $end
$var wire 32 "5 d [31:0] $end
$var reg 32 "f q [31:0] $end
$upscope $end


$scope module apb_pprot_ff $end
$var wire 1 { clk $end
$var wire 1 | rst $end
$var wire 3 "g d [2:0] $end
$var reg 3 "6 q [2:0] $end
$upscope $end


$scope module wstrb_ff $end
$var wire 1 { clk $end
$var wire 1 | rst $end
$var wire 4 "h d [3:0] $end
$var reg 4 "8 q [3:0] $end
$upscope $end


$scope module UUT $end
$var wire 1 { PCLK $end
$var wire 1 "> PRESETn $end
$var wire 1 "; STREQ $end
$var wire 1 + SWRT $end
$var wire 3 ) SSEL [2:0] $end
$var wire 32 ". SADDR [31:0] $end
$var wire 32 "& SWDATA [31:0] $end
$var wire 4 "8 WSTRB [3:0] $end
$var wire 32 / SRDATA [31:0] $end
$var wire 32 ' PADDR [31:0] $end
$var wire 3 ( PPROT [2:0] $end
$var wire 3 ) PSELx [2:0] $end
$var wire 1 * PENABLE $end
$var wire 1 + PWRITE $end
$var wire 32 , PWDATA [31:0] $end
$var wire 4 - PSTRB [3:0] $end
$var wire 3 . PREADY [2:0] $end
$var wire 32 / PRDATA [31:0] $end
$var wire 32 0 m_apb_prdata2 [31:0] $end
$var wire 32 1 m_apb_prdata3 [31:0] $end
$var wire 32 2 m_apb_prdata4 [31:0] $end
$var wire 32 3 m_apb_prdata5 [31:0] $end
$var wire 32 4 m_apb_prdata6 [31:0] $end
$var wire 32 5 m_apb_prdata7 [31:0] $end
$var wire 32 6 m_apb_prdata8 [31:0] $end
$var wire 32 7 m_apb_prdata9 [31:0] $end
$var wire 32 8 m_apb_prdata10 [31:0] $end
$var wire 32 9 m_apb_prdata11 [31:0] $end
$var wire 32 : m_apb_prdata12 [31:0] $end
$var wire 32 ; m_apb_prdata13 [31:0] $end
$var wire 32 < m_apb_prdata14 [31:0] $end
$var wire 32 = m_apb_prdata15 [31:0] $end
$var wire 32 > m_apb_prdata16 [31:0] $end
$var wire 3 ? PSLVERR [2:0] $end
$var wire 2 "< Out_State [1:0] $end
$var reg 2 "< state [1:0] $end
$upscope $end


$scope module addr_decoder $end
$var wire 32 ". input_address [31:0] $end
$var wire 3 "_ slave_sel [2:0] $end
$upscope $end


$scope module read_data_mux_ $end
$var wire 3 ) m_apb_psel [2:0] $end
$var wire 32 / m_apb_prdata [31:0] $end
$var wire 32 0 m_apb_prdata2 [31:0] $end
$var wire 32 1 m_apb_prdata3 [31:0] $end
$var wire 32 2 m_apb_prdata4 [31:0] $end
$var wire 32 3 m_apb_prdata5 [31:0] $end
$var wire 32 4 m_apb_prdata6 [31:0] $end
$var wire 32 5 m_apb_prdata7 [31:0] $end
$var wire 32 6 m_apb_prdata8 [31:0] $end
$var wire 32 7 m_apb_prdata9 [31:0] $end
$var wire 32 8 m_apb_prdata10 [31:0] $end
$var wire 32 9 m_apb_prdata11 [31:0] $end
$var wire 32 : m_apb_prdata12 [31:0] $end
$var wire 32 ; m_apb_prdata13 [31:0] $end
$var wire 32 < m_apb_prdata14 [31:0] $end
$var wire 32 = m_apb_prdata15 [31:0] $end
$var wire 32 > m_apb_prdata16 [31:0] $end
$var wire 32 "= read_data [31:0] $end
$upscope $end

$upscope $end


$scope module apb_slave $end
$var wire 1 { PCLK $end
$var wire 1 | PRESETn $end
$var wire 32 ' PADDR [31:0] $end
$var wire 1 + PWRITE $end
$var wire 1 "i PSEL $end
$var wire 32 , PWDATA [31:0] $end
$var reg 32 "j PRDATA [31:0] $end
$var reg 1 "k PREADY $end
$var wire 1 "l SLVERR $end
$var wire 32 "m mod_addr [31:0] $end
$var reg 2 "n State [1:0] $end
$upscope $end


$scope module apb_slave2 $end
$var wire 1 { PCLK $end
$var wire 1 | PRESETn $end
$var wire 32 ' PADDR [31:0] $end
$var wire 1 + PWRITE $end
$var wire 1 "o PSEL $end
$var wire 32 , PWDATA [31:0] $end
$var reg 32 "p PRDATA [31:0] $end
$var reg 1 "q PREADY $end
$var wire 1 "r SLVERR $end
$var wire 32 "s mod_addr [31:0] $end
$var reg 2 "t State [1:0] $end
$upscope $end


$scope module apb_slave3 $end
$var wire 1 { PCLK $end
$var wire 1 | PRESETn $end
$var wire 32 ' PADDR [31:0] $end
$var wire 1 + PWRITE $end
$var wire 1 "u PSEL $end
$var wire 32 , PWDATA [31:0] $end
$var reg 32 "v PRDATA [31:0] $end
$var reg 1 "w PREADY $end
$var wire 1 "x SLVERR $end
$var wire 32 "y mod_addr [31:0] $end
$var reg 2 "z State [1:0] $end
$upscope $end

$upscope $end


$scope module uvm_pkg $end
$var reg 32 "{ UVM_UNBOUNDED_CONNECTIONS [31:0] $end
$var reg 1 "| uvm_start_uvm_declarations $end
$var reg 32 "} uvm_global_random_seed [31:0] $end
$upscope $end

$enddefinitions $end

#0
$dumpvars
1"|
b11111111111111111111111111111111 "{
b11010111000011101001001001001010 "}
1!
0"
0#
bxxxxxxxxxxxxxxxxxxxxxxxxxxxxxxxx %
b0001 @
b00000000000000000000000000001010 $
b00000000000000000000000000000100 &
b00000000000000000000000000000000 E
b00000000000000000000000000000000 A
b00000000000000000000000000000010 B
b00000000000000000000000000000000 D
b00000000000000000000000000000000 C
bxx U
bxxxx R
bxxxxxxxxxxxxxxxxxxxxxxxxxxxxxxxx Q
bxxxxxxxxxxxxxxxxxxxxxxxxxxxxxxxx N
bxx K
bxxxxxxxxxxxxxxxxxxxxxxxxxxxxxxxx J
bxxxxxxxxxxxxxxxxxxxxxxxxxxxxxxxx G
bxx i
b0000 f
b0000000000000000000000000000x0x0 e
b00000000000000000000000000000x00 b
bxx _
bxxxxxxxxxxxxxxxxxxxxxxxxxxxxxxxx ^
b00000000000000000000000000000x00 [
0y
0z
b00000000000000000000000000000100 v
b11011110101011011011111011101111 w
bxxxxxxxxxxxxxxxxxxxxxxxxxxxxxxxx x
b000 u
bxxx t
b00000000000000000000000000001010 r
b00000000000000000000000000000100 s
x";
0"M
0"N
0"O
0"P
x"B
0"J
x"W
x"C
x"X
x"D
x"Y
x"E
x"Z
x"?
0"F
x"U
0"Q
x"[
x"]
x"@
0"G
x"V
0"R
x"A
0"H
0"S
x"\
x"^
x"K
x"I
x"(
b00 "<
b000 "6
bxxxxxxxxxxxxxxxxxxxxxxxxxxxxxxxx "&
bxxx ":
bxx "0
bxxxxxxxxxxxxxxxxxxxxxxxxxxxxxxxx ",
bxx "1
bxxxxxxxxxxxxxxxxxxxxxxxxxxxxxxxx "4
bxx "2
bxx "3
b1111 "8
bxxxxxxxxxxxxxxxxxxxxxxxxxxxxxxxx "`
x"a
x"b
x"c
bxxxxxxxxxxxxxxxxxxxxxxxxxxxxxxxx "d
bxxxxxxxxxxxxxxxxxxxxxxxxxxxxxxxx "e
bxxxxxxxxxxxxxxxxxxxxxxxxxxxxxxxx "f
x"k
bxxxxxxxxxxxxxxxxxxxxxxxxxxxxxxxx "j
bxx "n
bxxxxxxxxxxxxxxxxxxxxxxxxxxxxxxxx "m
x"q
bxxxxxxxxxxxxxxxxxxxxxxxxxxxxxxxx "p
bxx "t
bxxxxxxxxxxxxxxxxxxxxxxxxxxxxxxxx "s
x"w
bxxxxxxxxxxxxxxxxxxxxxxxxxxxxxxxx "v
bxx "z
bxxxxxxxxxxxxxxxxxxxxxxxxxxxxxxxx "y
b1111 "h
b000 "g
b1111 "9
b000 "7
1F
1n
1o
0p
0q
1|
b00000000000000000000000000000x00 }
b0000000000000000000000000000x0x0 ~
b0000 "!
bxx ""
b00000000000000000000000000000x00 "#
bxx "$
bxxxxxxxxxxxxxxxxxxxxxxxxxxxxxxxx "%
bxxxxxxxxxxxxxxxxxxxxxxxxxxxxxxxx /
bxxxxxxxxxxxxxxxxxxxxxxxxxxxxxxxx 0
bxxxxxxxxxxxxxxxxxxxxxxxxxxxxxxxx 1
b000 )
0"i
bxxx .
b000 ?
0"l
0"o
0"r
0"u
0"x
1{
bxxxxxxxxxxxxxxxxxxxxxxxxxxxxxxxx '
b000 (
0*
bxxxxxxxxxxxxxxxxxxxxxxxxxxxxxxxx ,
b1111 -
bzzzzzzzzzzzzzzzzzzzzzzzzzzzzzzzz 2
bzzzzzzzzzzzzzzzzzzzzzzzzzzzzzzzz 3
bzzzzzzzzzzzzzzzzzzzzzzzzzzzzzzzz 4
bzzzzzzzzzzzzzzzzzzzzzzzzzzzzzzzz 5
bzzzzzzzzzzzzzzzzzzzzzzzzzzzzzzzz 6
bzzzzzzzzzzzzzzzzzzzzzzzzzzzzzzzz 7
bzzzzzzzzzzzzzzzzzzzzzzzzzzzzzzzz 8
bzzzzzzzzzzzzzzzzzzzzzzzzzzzzzzzz 9
bzzzzzzzzzzzzzzzzzzzzzzzzzzzzzzzz :
bzzzzzzzzzzzzzzzzzzzzzzzzzzzzzzzz ;
bzzzzzzzzzzzzzzzzzzzzzzzzzzzzzzzz <
bzzzzzzzzzzzzzzzzzzzzzzzzzzzzzzzz =
bzzzzzzzzzzzzzzzzzzzzzzzzzzzzzzzz >
bzzz X
zI
zH
bzzz Y
zP
zO
zW
zV
zM
zL
zT
zS
xZ
bzzz l
x]
x\
bzzz m
xd
xc
xk
xa
xh
xg
xj
x`
x+
1">
bxxxxxxxxxxxxxxxxxxxxxxxxxxxxxxxx ".
0"L
0"T
bxxxxxxxxxxxxxxxxxxxxxxxxxxxxxxxx "'
x")
x"*
x"+
bxxxxxxxxxxxxxxxxxxxxxxxxxxxxxxxx "-
bxxxxxxxxxxxxxxxxxxxxxxxxxxxxxxxx "/
bxxxxxxxxxxxxxxxxxxxxxxxxxxxxxxxx "5
bxxx "_
b00000000000000000000000000000000 "=
$end
0"K
#5000
0F
0n
0{
b00 "n
b00 "t
b00 "z
#10000
1F
1n
1{
b00000000000000000000000010000000 D
1#
1q
b00000000000000000000000000000000 $
b00000000000000000000000000000000 r
b00000000000000000000000000000000 e
b00000000000000000000000000000000 ~
b00000000000000000000000010000000 &
b00000000000000000000000010000000 s
b000000000000000000000000x0000000 [
b000000000000000000000000x0000000 "#
b000000000000000000000000x0000000 b
b000000000000000000000000x0000000 }
b0010 @
1z
b000 t
0\
b00000000000000000000000000000000 [
b00000000000000000000000000000000 "#
0c
0"[
b00000000000000000000000000000000 b
b00000000000000000000000000000000 }
0g
0"]
0a
0"U
0k
b011 u
0"W
0"B
0"Y
0"X
0"E
0"C
0"Z
0"D
0]
0";
#15000
0F
0n
0{
b00000000000000000000000000000000 "j
b00000000000000000000000000000000 /
b00000000000000000000000000000000 "p
b00000000000000000000000000000000 0
b00000000000000000000000000000000 "v
b00000000000000000000000000000000 1
#20000
1F
1n
1{
b011 t
1c
0"\
x"[
b00000000000000000000000010000000 b
b00000000000000000000000010000000 }
x";
x"E
#25000
0F
0n
0{
#30000
0!
0|
0">
0o
1F
1n
1{
0")
0"k
0"q
0"w
b00000000000000000000000000000000 x
0z
b000 t
0c
x"\
0"[
b00000000000000000000000000000000 b
b00000000000000000000000000000000 }
b000 ":
0"I
0"\
0"^
1"A
0"V
b00 "0
b00 "$
b00 _
b00 "2
b00 ""
b00 i
b0000 "8
b0000 -
b00000000000000000000000000000000 "`
b00000000000000000000000000000000 "&
b00000000000000000000000000000000 ,
0"a
0"(
0"b
0`
0"c
0j
b00000000000000000000000000000000 "d
b00000000000000000000000000000000 ",
b00000000000000000000000000000000 "%
b00000000000000000000000000000000 ^
b00000000000000000000000000000000 "e
b00000000000000000000000000000000 ".
b00000000000000000000000000000000 '
b00000000000000000000000000000000 "m
b11111111111111111111111111000000 "s
b11111111111111111111111110000000 "y
b00000000000000000000000000000000 "f
b00000000000000000000000000000000 "4
b000 .
b001 "_
b000 u
0";
0"E
b00000000000000000000000000000000 "/
b00000000000000000000000000000000 "'
0"*
b00000000000000000000000000000001 "5
b00000000000000000000000000000000 "-
b00 "1
0h
b00 "3
1"?
0"@
0d
0"+
0+
#35000
0F
0n
0{
#40000
1F
1n
1{
#45000
0F
0n
0{
#50000
1F
1n
1{
#55000
0F
0n
0{
#60000
1!
1|
1">
1o
1F
1n
1{
1z
b1111 "8
b1111 -
b00000000000000000000000000000001 "f
b00000000000000000000000000000001 "4
b011 u
#65000
0F
0n
0{
#70000
1F
1n
1{
b011 t
1c
b00000000000000000000000010000000 b
b00000000000000000000000010000000 }
1"E
1d
b00000000000000000000000010000000 "/
b100 u
#75000
0F
0n
0{
#80000
1F
1n
1{
b100 t
0c
b00000000000000000000000000000000 b
b00000000000000000000000000000000 }
1g
b011 ":
0"A
1"]
b00000000000000000000000010000000 "e
b00000000000000000000000010000000 ".
b00000000000000000000000010000000 '
b00000000000000000000000010000000 "m
b00000000000000000000000001000000 "s
b00000000000000000000000000000000 "y
b100 "_
0"E
1"D
0"?
1h
1";
0d
0"D
b101 u
#85000
0F
0n
0{
#90000
1F
1n
1{
b101 t
0g
1"^
0"]
1k
b010 ":
0"^
b01 "<
1"S
0";
1")
1+
b100 )
1"u
0h
#95000
0F
0n
0{
b01 "z
#100000
1F
1n
1{
b10 "<
1*
0"S
1"a
1"(
1"R
b00000000000000000000000000000000 "5
#105000
0F
0n
0{
1"w
b00 "z
b100 .
0"R
1"Q
1"+
b00000000000000000000000000000001 "5
#110000
1F
1n
1{
b000 ":
1"A
b00 "<
0*
1"c
1j
b00000000000000000000000000000000 "/
0")
b000 )
0"u
1"?
0"Q
b000 u
0"+
#115000
0F
0n
0{
#120000
1F
1n
1{
b0011 @
b000 t
0k
0"a
0"(
0"c
0j
b00000000000000000000000000000000 "e
b00000000000000000000000000000000 ".
b00000000000000000000000000000000 '
b00000000000000000000000000000000 "m
b11111111111111111111111111000000 "s
b11111111111111111111111110000000 "y
b001 "_
b011 u
0"@
0+
1"?
#125000
0F
0n
0{
#130000
1F
1n
1{
b00000000000000000000000010000000 E
0#
0q
1"
1p
b0100 @
1y
0z
b011 t
1c
b00000000000000000000000010000000 b
b00000000000000000000000010000000 }
1"E
1d
b00000000000000000000000010000000 "/
b100 u
#135000
0F
0n
0{
#140000
1F
1n
1{
b100 t
0c
b00000000000000000000000000000000 b
b00000000000000000000000000000000 }
1g
b011 ":
0"A
1"]
b00000000000000000000000010000000 "e
b00000000000000000000000010000000 ".
b00000000000000000000000010000000 '
b00000000000000000000000010000000 "m
b00000000000000000000000001000000 "s
b00000000000000000000000000000000 "y
b100 "_
0"E
1"D
0"?
1h
1";
0d
0"D
b101 u
#145000
0F
0n
0{
#150000
1F
1n
1{
b101 t
0g
1"^
0"]
1k
b010 ":
0"^
b01 "<
1"S
0";
1")
1+
b100 )
1"u
0h
#155000
0F
0n
0{
b01 "z
#160000
1F
1n
1{
b10 "<
1*
0"S
1"a
1"(
1"Q
1"+
#165000
0F
0n
0{
b00 "z
#170000
1F
1n
1{
b000 ":
1"A
b00 "<
0*
1"c
1j
b00000000000000000000000000000000 "/
0")
b000 )
0"u
1"?
0"Q
b000 u
0"+
#175000
0F
0n
0{
#180000
1F
1n
1{
b000 t
0k
0"a
0"(
0"c
0j
b00000000000000000000000000000000 "e
b00000000000000000000000000000000 ".
b00000000000000000000000000000000 '
b00000000000000000000000000000000 "m
b11111111111111111111111111000000 "s
b11111111111111111111111110000000 "y
b001 "_
b001 u
0"@
0+
1"?
#185000
0F
0n
0{
#190000
1F
1n
1{
b001 t
1\
b00000000000000000000000010000000 [
b00000000000000000000000010000000 "#
1"B
1]
b00000000000000000000000010000000 "/
1";
b010 u
#195000
0F
0n
0{
#200000
1F
1n
1{
b010 t
0\
b00000000000000000000000000000000 [
b00000000000000000000000000000000 "#
1a
b001 ":
1"I
0"A
b01 "<
0"I
1"H
b00000000000000000000000010000000 "e
b00000000000000000000000010000000 ".
b00000000000000000000000010000000 '
b00000000000000000000000010000000 "m
b00000000000000000000000001000000 "s
b00000000000000000000000000000000 "y
b100 "_
0"B
b100 )
1"u
0"?
0]
0";
#205000
0F
0n
0{
b10 "z
#210000
1F
1n
1{
b10 "<
1*
0"H
b00000000000000000000000000000000 "/
1"*
1"F
1"J
#215000
0F
0n
0{
b00 "z
#220000
1F
1n
1{
b000 ":
1"A
b00 "<
0*
1"b
1`
b00000000000000000000000000000000 "e
b00000000000000000000000000000000 ".
b00000000000000000000000000000000 '
b00000000000000000000000000000000 "m
b11111111111111111111111111000000 "s
b11111111111111111111111110000000 "y
b001 "_
1"?
b000 )
0"u
0"F
0"J
0"*
b000 u
#225000
0F
0n
0{
#230000
1F
1n
1{
b00000000000000000000000000000000 %
b0101 @
b000 t
0a
0"b
0`
b001 u
#235000
0F
0n
0{
#240000
1F
1n
1{
b00000000000000000000000000000001 A
b0000 @
b001 t
1\
b00000000000000000000000010000000 [
b00000000000000000000000010000000 "#
1"B
1]
b00000000000000000000000010000000 "/
1";
b010 u
#245000
0F
0n
0{
#250000
1F
1n
1{
b00000000000000000000000000000001 B
b0001 @
b010 t
0\
b00000000000000000000000000000000 [
b00000000000000000000000000000000 "#
1a
b001 ":
1"I
0"A
b01 "<
0"I
1"H
b00000000000000000000000010000000 "e
b00000000000000000000000010000000 ".
b00000000000000000000000010000000 '
b00000000000000000000000010000000 "m
b00000000000000000000000001000000 "s
b00000000000000000000000000000000 "y
b100 "_
0"B
b100 )
1"u
0"?
0]
0";
#255000
0F
0n
0{
b10 "z
#260000
1F
1n
1{
b00000000000000000000000000000001 C
b00000000000000000000000010000001 D
1#
1q
0"
0p
b00000000000000000000000000000001 $
b00000000000000000000000000000001 r
b00000000000000000000000010000001 &
b00000000000000000000000010000001 s
b0010 @
0y
1z
b10 "<
1*
0"H
b00000000000000000000000000000000 "/
1"*
1"F
1"J
#265000
0F
0n
0{
b00 "z
#270000
1F
1n
1{
b000 ":
1"A
b00 "<
0*
1"b
1`
b00000000000000000000000000000000 "e
b00000000000000000000000000000000 ".
b00000000000000000000000000000000 '
b00000000000000000000000000000000 "m
b11111111111111111111111111000000 "s
b11111111111111111111111110000000 "y
b001 "_
1"?
b000 )
0"u
0"F
0"J
0"*
b000 u
#275000
0F
0n
0{
#280000
1F
1n
1{
b000 t
0a
0"b
0`
b011 u
#285000
0F
0n
0{
#290000
1F
1n
1{
b011 t
1c
b00000000000000000000000010000001 b
b00000000000000000000000010000001 }
1"E
1d
b00000000000000000000000010000001 "/
b100 u
#295000
0F
0n
0{
#300000
1F
1n
1{
b100 t
0c
b00000000000000000000000000000000 b
b00000000000000000000000000000000 }
1g
b00000000000000000000000000000001 e
b00000000000000000000000000000001 ~
b011 ":
0"A
1"]
b00000000000000000000000010000001 "e
b00000000000000000000000010000001 ".
b00000000000000000000000010000001 '
b00000000000000000000000010000001 "m
b00000000000000000000000001000001 "s
b00000000000000000000000000000001 "y
b100 "_
0"E
b00000000000000000000000000000001 "'
1"D
0"?
1h
1";
0d
0"D
b101 u
#305000
0F
0n
0{
